{
  "project_info": {
    "project_number": "719176853289",
    "project_id": "flutter-chat-app-3922d",
    "storage_bucket": "flutter-chat-app-3922d.appspot.com"
  },
  "client": [
    {
      "client_info": {
        "mobilesdk_app_id": "1:719176853289:android:a13c965cb7ce7c62c07938",
        "android_client_info": {
          "package_name": "com.example.chat_app"
        }
      },
      "oauth_client": [],
      "api_key": [
        {
          "current_key": "AIzaSyAcVx2BsvJeYx8EdMf73T8hLCZv2pE9mGY"
        }
      ],
      "services": {
        "appinvite_service": {
          "other_platform_oauth_client": []
        }
      }
    }
  ],
  "configuration_version": "1"
}